#f	deltaf	v_out	deltav_out	v_in	deltav_in
7.006e2	0.001e2	7.6	0.2	8.3	0.2
6.547e2	0.001e2	6.9	0.2	8.4	0.2
5.847e2	0.001e2	5.1	0.2	8.5	0.2
6.021e2	0.001e2	5.6	0.2	8.5	0.2
5.523e2	0.001e2	4.3	0.1	8.6	0.2
7.200e2	0.001e2	7.4	0.2	8.2	0.2
8.321e2	0.001e2	5.3	0.2	8.4	0.2
8.600e2	0.001e2	4.8	0.1	8.6	0.2
7.791e2	0.001e2	6.4	0.2	8.4	0.2
9.083e2	0.001e2	4.1	0.1	8.6	0.2
7.023e2	0.001e2	7.4	0.2	8.2	0.2
1.000e3	0.001e3	3.2	0.1	8.6	0.2
1.408e3	0.001e3	1.68	0.05	8.7	0.3
1.755e3	0.001e3	1.22	0.04	8.7	0.3
5.000e2	0.001e2	3.3	0.1	8.7	0.3
4.002e2	0.001e2	2.12	0.06	8.6	0.2
3.451e2	0.001e2	1.64	0.05	8.7	0.3
1.185e3	0.001e3	2.24	0.07	8.7	0.3