\relax 
\@writefile{toc}{\contentsline {section}{\numberline {1}Introduzione ed obiettivi}{1}}
\@writefile{toc}{\contentsline {section}{\numberline {2}Apparato sperimentale}{1}}
\@writefile{lof}{\contentsline {figure}{\numberline {1}{\ignorespaces apparato sperimentale utilizzato\relax }}{2}}
\@writefile{toc}{\contentsline {section}{\numberline {3}Modello teorico}{2}}
\@writefile{toc}{\contentsline {section}{\numberline {4}Misure ed analisi}{3}}
\@writefile{lof}{\contentsline {figure}{\numberline {2}{\ignorespaces Diagramma di Bode\relax }}{4}}
\@writefile{lof}{\contentsline {figure}{\numberline {3}{\ignorespaces Diagramma di Bode per diversi $Q_f$\relax }}{5}}
\@writefile{toc}{\contentsline {section}{\numberline {5}Conclusioni}{5}}
\@writefile{toc}{\contentsline {section}{\numberline {6}Appendice}{6}}
\@writefile{toc}{\contentsline {subsection}{\numberline {6.1}Tabella 1}{6}}
\providecommand*\caption@xref[2]{\@setref\relax\@undefined{#1}}
\newlabel{table:nonlin}{{\caption@xref {table:nonlin}{ on input line 133}}{6}}
\@writefile{toc}{\contentsline {subsection}{\numberline {6.2}Diagramma di Nyquist}{6}}
\@writefile{lof}{\contentsline {figure}{\numberline {4}{\ignorespaces Diagramma di Nyquist\relax }}{7}}
