#R	dR	I	dI
35.0	0.3	90.0	1.0
75.2	0.6	46.3	0.5
359.0	3.0	13.2	0.2
710.0	6.0	6.92	0.08
110.2	0.9	38.4	0.5
23.9	0.3	109.0	1.0
62.2	0.5	60.0	0.7
68.0	0.5	56.5	0.7
238.0	2.0	19.6	0.2
3480.0	30	1.416	0.007
7390	60	0.678	0.003
35100	300	0.1410	0.0007
70400	600	0.0714	0.0003
6100	50	0.818	0.009
362000	4000	0.0139	0.0001