0	1	0.1	0.1
10	1	1.8	0.1
20	1	6.1	0.1
30	1	12.4	0.1
40	1	20.4	0.2
50	1	29.3	0.3
60	1	38.7	0.3
70	1	44.5	0.4
80	1	48.4	0.4
90	1	50.6	0.5
100	1	48.9	0.5
110	1	47.6	0.5
120	1	40.8	0.4
130	1	32.1	0.3
140	1	22.9	0.2
150	1	13.0	0.1
160	1	6.3	0.1
170	1	1.7	0.1
180	1	0.1	0.1